%YAML 1.1
%TAG !u! tag:unity3d.com,2011:
--- !u!114 &11400000
MonoBehaviour:
  m_ObjectHideFlags: 0
  m_CorrespondingSourceObject: {fileID: 0}
  m_PrefabInternal: {fileID: 0}
  m_GameObject: {fileID: 0}
  m_Enabled: 1
  m_EditorHideFlags: 0
  m_Script: {fileID: 11500000, guid: 54d21f6ece3b46479f0c328f8c6007e0, type: 3}
  m_Name: ButtonColor
  m_EditorClassIdentifier: 
  topLeft: {r: 0.5377358, g: 0.36652276, b: 0.2967693, a: 1}
  topRight: {r: 0.62194437, g: 0.6509434, b: 0.38995194, a: 1}
  bottomLeft: {r: 0.16862746, g: 0.19607845, b: 0.23137257, a: 1}
  bottomRight: {r: 0.1974123, g: 0.08877714, b: 0.3301887, a: 1}
